…
--- WATER ACCESS & TIME USE ---
> 
> # Frequencies
> tab_kiosk <- print_freq(df, "kiosk_use_frequency", "village")
# A tibble: 27 × 4
# Groups:   village [6]
   village     kiosk_use_frequency       n  perc
   <chr>       <chr>                 <int> <dbl>
 1 Borda       "3\u00966 times/week"     1   4.3
 2 Borda       "Daily"                  16  69.6
 3 Borda       "Never"                   3  13  
 4 Borda       "Rarely"                  3  13  
 5 Kabong'o    "1\u00962 times/week"     1   1.2
 6 Kabong'o    "3\u00966 times/week"     4   4.8
 7 Kabong'o    "Daily"                  49  58.3
 8 Kabong'o    "Never"                  20  23.8
 9 Kabong'o    "Rarely"                 10  11.9
10 Kagola West "1\u00962 times/week"     1   1.6
# ℹ 17 more rows
# ℹ Use `print(n = ...)` to see more rows
…
--- WATER ACCESS & TIME USE ---
> 
> # Frequencies
> tab_kiosk <- print_freq(df, "kiosk_use_frequency", "village")
# A tibble: 27 × 4
# Groups:   village [6]
   village     kiosk_use_frequency       n  perc
   <chr>       <chr>                 <int> <dbl>
 1 Borda       "3\u00966 times/week"     1   4.3
 2 Borda       "Daily"                  16  69.6
 3 Borda       "Never"                   3  13  
 4 Borda       "Rarely"                  3  13  
 5 Kabong'o    "1\u00962 times/week"     1   1.2
 6 Kabong'o    "3\u00966 times/week"     4   4.8
 7 Kabong'o    "Daily"                  49  58.3
 8 Kabong'o    "Never"                  20  23.8
 9 Kabong'o    "Rarely"                 10  11.9
10 Kagola West "1\u00962 times/week"     1   1.6
# ℹ 17 more rows
# ℹ Use `print(n = ...)` to see more rows
…
